EESchema Schematic File Version 4
EELAYER 30 0
EELAYER END
$Descr A4 11693 8268
encoding utf-8
Sheet 1 1
Title "CoCo3 512K SRAM"
Date "2021-03-13"
Rev "TM009/1"
Comp "Teipen Mwnci"
Comment1 ""
Comment2 ""
Comment3 ""
Comment4 ""
$EndDescr
$Comp
L SRAM:CY62146ELL U7
U 1 1 604AA651
P 9500 2450
F 0 "U7" H 9600 1300 50  0000 L CNN
F 1 "CY62146ESL" H 9600 1200 50  0000 L CNN
F 2 "Package_SO:TSOP-II-44_10.16x18.41mm_P0.8mm" H 9500 2650 50  0001 C CNN
F 3 "" H 9500 2650 50  0001 C CNN
	1    9500 2450
	1    0    0    -1  
$EndComp
$Comp
L power:GND #PWR011
U 1 1 604BA88D
P 7250 2750
F 0 "#PWR011" H 7250 2500 50  0001 C CNN
F 1 "GND" H 7255 2577 50  0000 C CNN
F 2 "" H 7250 2750 50  0001 C CNN
F 3 "" H 7250 2750 50  0001 C CNN
	1    7250 2750
	1    0    0    -1  
$EndComp
Wire Wire Line
	7250 2750 7250 2700
$Comp
L power:GND #PWR013
U 1 1 604BB952
P 7250 4600
F 0 "#PWR013" H 7250 4350 50  0001 C CNN
F 1 "GND" H 7255 4427 50  0000 C CNN
F 2 "" H 7250 4600 50  0001 C CNN
F 3 "" H 7250 4600 50  0001 C CNN
	1    7250 4600
	1    0    0    -1  
$EndComp
$Comp
L power:+5V #PWR012
U 1 1 604BC447
P 7250 3500
F 0 "#PWR012" H 7250 3350 50  0001 C CNN
F 1 "+5V" H 7265 3673 50  0000 C CNN
F 2 "" H 7250 3500 50  0001 C CNN
F 3 "" H 7250 3500 50  0001 C CNN
	1    7250 3500
	1    0    0    -1  
$EndComp
Wire Wire Line
	7250 3500 7250 3550
$Comp
L power:+5V #PWR010
U 1 1 604BD569
P 7250 950
F 0 "#PWR010" H 7250 800 50  0001 C CNN
F 1 "+5V" H 7265 1123 50  0000 C CNN
F 2 "" H 7250 950 50  0001 C CNN
F 3 "" H 7250 950 50  0001 C CNN
	1    7250 950 
	1    0    0    -1  
$EndComp
Wire Wire Line
	7250 950  7250 1000
$Comp
L power:+5V #PWR021
U 1 1 604BE71A
P 9500 950
F 0 "#PWR021" H 9500 800 50  0001 C CNN
F 1 "+5V" H 9515 1123 50  0000 C CNN
F 2 "" H 9500 950 50  0001 C CNN
F 3 "" H 9500 950 50  0001 C CNN
	1    9500 950 
	1    0    0    -1  
$EndComp
$Comp
L power:GND #PWR022
U 1 1 604C229E
P 9500 3950
F 0 "#PWR022" H 9500 3700 50  0001 C CNN
F 1 "GND" H 9505 3777 50  0000 C CNN
F 2 "" H 9500 3950 50  0001 C CNN
F 3 "" H 9500 3950 50  0001 C CNN
	1    9500 3950
	1    0    0    -1  
$EndComp
Wire Wire Line
	9450 3650 9450 3750
Wire Wire Line
	9450 3750 9500 3750
Wire Wire Line
	9550 3750 9550 3650
Wire Wire Line
	9500 3750 9500 3850
Connection ~ 9500 3750
Wire Wire Line
	9500 3750 9550 3750
Wire Wire Line
	9450 1250 9450 1150
Wire Wire Line
	9450 1150 9500 1150
Wire Wire Line
	9550 1150 9550 1250
Wire Wire Line
	9500 950  9500 1150
Connection ~ 9500 1150
Wire Wire Line
	9500 1150 9550 1150
$Comp
L Device:C_Small C6
U 1 1 604C4191
P 9750 1150
F 0 "C6" V 9521 1150 50  0000 C CNN
F 1 "100n" V 9612 1150 50  0000 C CNN
F 2 "Capacitor_SMD:C_0603_1608Metric_Pad1.08x0.95mm_HandSolder" H 9750 1150 50  0001 C CNN
F 3 "~" H 9750 1150 50  0001 C CNN
	1    9750 1150
	0    1    1    0   
$EndComp
Wire Wire Line
	9650 1150 9550 1150
Connection ~ 9550 1150
$Comp
L Device:C_Small C5
U 1 1 604C4B87
P 9250 1150
F 0 "C5" V 9479 1150 50  0000 C CNN
F 1 "100n" V 9388 1150 50  0000 C CNN
F 2 "Capacitor_SMD:C_0603_1608Metric_Pad1.08x0.95mm_HandSolder" H 9250 1150 50  0001 C CNN
F 3 "~" H 9250 1150 50  0001 C CNN
	1    9250 1150
	0    -1   -1   0   
$EndComp
Wire Wire Line
	9350 1150 9450 1150
Connection ~ 9450 1150
$Comp
L power:GND #PWR023
U 1 1 604C5AD5
P 10050 1150
F 0 "#PWR023" H 10050 900 50  0001 C CNN
F 1 "GND" H 10055 977 50  0000 C CNN
F 2 "" H 10050 1150 50  0001 C CNN
F 3 "" H 10050 1150 50  0001 C CNN
	1    10050 1150
	1    0    0    -1  
$EndComp
Wire Wire Line
	9850 1150 10050 1150
$Comp
L power:GND #PWR020
U 1 1 604C7848
P 8950 1150
F 0 "#PWR020" H 8950 900 50  0001 C CNN
F 1 "GND" H 8955 977 50  0000 C CNN
F 2 "" H 8950 1150 50  0001 C CNN
F 3 "" H 8950 1150 50  0001 C CNN
	1    8950 1150
	1    0    0    -1  
$EndComp
Wire Wire Line
	8950 1150 9150 1150
$Comp
L Connector_Generic:Conn_01x24 J1
U 1 1 604C7851
P 1000 2100
F 0 "J1" H 1000 3450 50  0000 C CNN
F 1 "To CN5/CN6" H 1000 3350 50  0000 C CNN
F 2 "Connector_PinHeader_2.54mm:PinHeader_1x24_P2.54mm_Vertical" H 1000 2100 50  0001 C CNN
F 3 "~" H 1000 2100 50  0001 C CNN
	1    1000 2100
	-1   0    0    -1  
$EndComp
$Comp
L Connector_Generic:Conn_01x12 J2
U 1 1 604C96AD
P 1000 4200
F 0 "J2" H 1000 4950 50  0000 C CNN
F 1 "To CN4" H 1000 4850 50  0000 C CNN
F 2 "Connector_PinHeader_2.54mm:PinHeader_1x12_P2.54mm_Vertical" H 1000 4200 50  0001 C CNN
F 3 "~" H 1000 4200 50  0001 C CNN
	1    1000 4200
	-1   0    0    -1  
$EndComp
Wire Wire Line
	1300 1000 1200 1000
$Comp
L power:+5V #PWR04
U 1 1 604CAD76
P 1600 1000
F 0 "#PWR04" H 1600 850 50  0001 C CNN
F 1 "+5V" H 1615 1173 50  0000 C CNN
F 2 "" H 1600 1000 50  0001 C CNN
F 3 "" H 1600 1000 50  0001 C CNN
	1    1600 1000
	1    0    0    -1  
$EndComp
Wire Wire Line
	1200 1100 1600 1100
Wire Wire Line
	1600 1100 1600 1000
$Comp
L power:PWR_FLAG #FLG02
U 1 1 604CBAC1
P 1700 1100
F 0 "#FLG02" H 1700 1175 50  0001 C CNN
F 1 "PWR_FLAG" V 1700 1228 50  0000 L CNN
F 2 "" H 1700 1100 50  0001 C CNN
F 3 "~" H 1700 1100 50  0001 C CNN
	1    1700 1100
	0    1    1    0   
$EndComp
Wire Wire Line
	1700 1100 1600 1100
Connection ~ 1600 1100
Text Label 1300 1200 0    50   ~ 0
D9
Text Label 1300 1300 0    50   ~ 0
D8
Text Label 1300 1400 0    50   ~ 0
D10
Text Label 1300 1500 0    50   ~ 0
D11
Text Label 1300 1600 0    50   ~ 0
D14
Text Label 1300 1700 0    50   ~ 0
D15
Text Label 1300 1800 0    50   ~ 0
D13
Text Label 1300 1900 0    50   ~ 0
D12
Text Label 1300 2000 0    50   ~ 0
~WE1
Wire Wire Line
	1300 2000 1200 2000
Wire Wire Line
	1300 1900 1200 1900
Wire Wire Line
	1300 1800 1200 1800
Wire Wire Line
	1300 1700 1200 1700
Wire Wire Line
	1300 1600 1200 1600
Wire Wire Line
	1300 1500 1200 1500
Wire Wire Line
	1300 1400 1200 1400
Wire Wire Line
	1300 1300 1200 1300
Wire Wire Line
	1300 1200 1200 1200
Text Label 1300 2300 0    50   ~ 0
D2
Wire Wire Line
	1300 2300 1200 2300
Text Label 1300 2400 0    50   ~ 0
D3
Text Label 1300 2500 0    50   ~ 0
D1
Text Label 1300 2600 0    50   ~ 0
~WE0
Text Label 1300 2700 0    50   ~ 0
D0
Text Label 1300 2800 0    50   ~ 0
~CAS
Text Label 1300 3000 0    50   ~ 0
D5
Text Label 1300 3100 0    50   ~ 0
D4
Text Label 1300 3200 0    50   ~ 0
D6
Wire Wire Line
	1300 3300 1200 3300
Wire Wire Line
	1300 2400 1200 2400
Wire Wire Line
	1300 2500 1200 2500
Wire Wire Line
	1300 2600 1200 2600
Wire Wire Line
	1300 2700 1200 2700
Wire Wire Line
	1300 2800 1200 2800
Wire Wire Line
	1300 2900 1200 2900
Wire Wire Line
	1300 3000 1200 3000
Wire Wire Line
	1300 3100 1200 3100
Wire Wire Line
	1300 3200 1200 3200
$Comp
L power:GND #PWR01
U 1 1 604E3C28
P 750 5100
F 0 "#PWR01" H 750 4850 50  0001 C CNN
F 1 "GND" H 755 4927 50  0000 C CNN
F 2 "" H 750 5100 50  0001 C CNN
F 3 "" H 750 5100 50  0001 C CNN
	1    750  5100
	1    0    0    -1  
$EndComp
Wire Wire Line
	750  5100 750  5000
Wire Wire Line
	750  900  1300 900 
Wire Wire Line
	1300 900  1300 1000
Connection ~ 750  4900
Wire Wire Line
	750  4900 750  3600
Wire Wire Line
	1300 3600 1300 3700
Wire Wire Line
	1300 3700 1200 3700
Wire Wire Line
	750  3600 1300 3600
Wire Wire Line
	1200 4800 1300 4800
Wire Wire Line
	1300 4800 1300 4900
Wire Wire Line
	750  4900 1300 4900
Wire Wire Line
	1400 2100 1400 2150
$Comp
L Device:C_Small C4
U 1 1 60501845
P 7550 3550
F 0 "C4" V 7321 3550 50  0000 C CNN
F 1 "100n" V 7412 3550 50  0000 C CNN
F 2 "Capacitor_SMD:C_0603_1608Metric_Pad1.08x0.95mm_HandSolder" H 7550 3550 50  0001 C CNN
F 3 "~" H 7550 3550 50  0001 C CNN
	1    7550 3550
	0    1    1    0   
$EndComp
$Comp
L power:GND #PWR015
U 1 1 605023E2
P 7750 3650
F 0 "#PWR015" H 7750 3400 50  0001 C CNN
F 1 "GND" H 7755 3477 50  0000 C CNN
F 2 "" H 7750 3650 50  0001 C CNN
F 3 "" H 7750 3650 50  0001 C CNN
	1    7750 3650
	1    0    0    -1  
$EndComp
Wire Wire Line
	7650 3550 7750 3550
Wire Wire Line
	7750 3550 7750 3650
Wire Wire Line
	7450 3550 7250 3550
Connection ~ 7250 3550
Wire Wire Line
	7250 3550 7250 3600
$Comp
L Device:C_Small C3
U 1 1 60505652
P 7550 1000
F 0 "C3" V 7321 1000 50  0000 C CNN
F 1 "100n" V 7412 1000 50  0000 C CNN
F 2 "Capacitor_SMD:C_0603_1608Metric_Pad1.08x0.95mm_HandSolder" H 7550 1000 50  0001 C CNN
F 3 "~" H 7550 1000 50  0001 C CNN
	1    7550 1000
	0    1    1    0   
$EndComp
Wire Wire Line
	7250 1000 7450 1000
Connection ~ 7250 1000
Wire Wire Line
	7250 1000 7250 1050
$Comp
L power:GND #PWR014
U 1 1 605096DE
P 7750 1100
F 0 "#PWR014" H 7750 850 50  0001 C CNN
F 1 "GND" H 7755 927 50  0000 C CNN
F 2 "" H 7750 1100 50  0001 C CNN
F 3 "" H 7750 1100 50  0001 C CNN
	1    7750 1100
	1    0    0    -1  
$EndComp
Wire Wire Line
	7650 1000 7750 1000
Wire Wire Line
	7750 1000 7750 1100
Text Label 1300 3800 0    50   ~ 0
~RAS
Text Label 1300 3900 0    50   ~ 0
Z0
Text Label 1300 4000 0    50   ~ 0
Z1
Text Label 1300 4100 0    50   ~ 0
Z2
Text Label 1300 4200 0    50   ~ 0
Z3
Text Label 1300 4300 0    50   ~ 0
Z6
Text Label 1300 4400 0    50   ~ 0
Z5
Text Label 1300 4500 0    50   ~ 0
Z4
Text Label 1300 4600 0    50   ~ 0
Z7
Text Label 1300 4700 0    50   ~ 0
Z8
Wire Wire Line
	1300 3900 1200 3900
Wire Wire Line
	1200 4000 1300 4000
Wire Wire Line
	1300 4100 1200 4100
Wire Wire Line
	1200 4200 1300 4200
Wire Wire Line
	1300 4300 1200 4300
Wire Wire Line
	1200 4400 1300 4400
Wire Wire Line
	1300 4500 1200 4500
Wire Wire Line
	1200 4600 1300 4600
Wire Wire Line
	1300 4700 1200 4700
Wire Wire Line
	750  900  750  3400
Wire Wire Line
	1200 2200 1400 2200
Wire Wire Line
	1200 2100 1400 2100
Wire Wire Line
	1300 3300 1300 3400
Wire Wire Line
	1300 3400 750  3400
Wire Wire Line
	750  3400 750  3600
Connection ~ 750  3400
Connection ~ 750  3600
$Comp
L power:GND #PWR05
U 1 1 60541AE8
P 1600 2250
F 0 "#PWR05" H 1600 2000 50  0001 C CNN
F 1 "GND" H 1605 2077 50  0000 C CNN
F 2 "" H 1600 2250 50  0001 C CNN
F 3 "" H 1600 2250 50  0001 C CNN
	1    1600 2250
	1    0    0    -1  
$EndComp
Wire Wire Line
	1400 2150 1600 2150
Wire Wire Line
	1600 2150 1600 2250
Connection ~ 1400 2150
Wire Wire Line
	1400 2150 1400 2200
$Comp
L power:PWR_FLAG #FLG01
U 1 1 60546344
P 850 5000
F 0 "#FLG01" H 850 5075 50  0001 C CNN
F 1 "PWR_FLAG" V 850 5128 50  0000 L CNN
F 2 "" H 850 5000 50  0001 C CNN
F 3 "~" H 850 5000 50  0001 C CNN
	1    850  5000
	0    1    1    0   
$EndComp
Wire Wire Line
	850  5000 750  5000
Connection ~ 750  5000
Wire Wire Line
	750  5000 750  4900
Text Label 10100 1750 0    50   ~ 0
D0
Text Label 10100 1650 0    50   ~ 0
D1
Text Label 10100 1450 0    50   ~ 0
D2
Text Label 10100 1550 0    50   ~ 0
D3
Text Label 10100 2050 0    50   ~ 0
D4
Text Label 10100 1950 0    50   ~ 0
D5
Text Label 10100 2150 0    50   ~ 0
D6
Text Label 10100 1850 0    50   ~ 0
D7
Text Label 10100 2850 0    50   ~ 0
D8
Text Label 10100 2950 0    50   ~ 0
D9
Text Label 10100 2750 0    50   ~ 0
D10
Text Label 10100 2650 0    50   ~ 0
D11
Text Label 10100 2250 0    50   ~ 0
D12
Text Label 10100 2350 0    50   ~ 0
D13
Text Label 10100 2550 0    50   ~ 0
D14
Text Label 10100 2450 0    50   ~ 0
D15
Wire Wire Line
	10100 1750 10000 1750
Wire Wire Line
	10100 1650 10000 1650
Wire Wire Line
	10100 1550 10000 1550
Wire Wire Line
	10100 1450 10000 1450
Wire Wire Line
	10100 2150 10000 2150
Wire Wire Line
	10100 2050 10000 2050
Wire Wire Line
	10100 1950 10000 1950
Wire Wire Line
	10100 1850 10000 1850
Wire Wire Line
	10100 2550 10000 2550
Wire Wire Line
	10100 2450 10000 2450
Wire Wire Line
	10100 2350 10000 2350
Wire Wire Line
	10100 2250 10000 2250
Wire Wire Line
	10100 2950 10000 2950
Wire Wire Line
	10100 2850 10000 2850
Wire Wire Line
	10100 2750 10000 2750
Wire Wire Line
	10100 2650 10000 2650
Wire Wire Line
	6650 1350 6750 1350
Wire Wire Line
	6750 1450 6650 1450
Wire Wire Line
	6650 1550 6750 1550
Wire Wire Line
	6750 1650 6650 1650
Wire Wire Line
	6650 1750 6750 1750
Wire Wire Line
	6750 1850 6650 1850
Wire Wire Line
	6650 1950 6750 1950
Wire Wire Line
	6750 2050 6650 2050
Wire Wire Line
	6650 3900 6750 3900
Wire Wire Line
	8900 1450 9000 1450
Wire Wire Line
	9000 1550 8900 1550
Wire Wire Line
	8900 1650 9000 1650
Wire Wire Line
	9000 1750 8900 1750
Wire Wire Line
	8900 1850 9000 1850
Wire Wire Line
	9000 1950 8900 1950
Wire Wire Line
	8900 2050 9000 2050
Wire Wire Line
	9000 2150 8900 2150
Wire Wire Line
	8900 2250 9000 2250
Text Label 8900 2450 2    50   ~ 0
A10
Text Label 8900 2550 2    50   ~ 0
A11
Text Label 8900 2650 2    50   ~ 0
A12
Wire Wire Line
	8900 2350 9000 2350
Wire Wire Line
	9000 2450 8900 2450
Wire Wire Line
	8900 2550 9000 2550
Wire Wire Line
	9000 2650 8900 2650
Wire Wire Line
	8900 2750 9000 2750
Wire Wire Line
	9000 2850 8900 2850
Wire Wire Line
	8900 2950 9000 2950
Wire Wire Line
	9000 3050 8900 3050
Wire Wire Line
	8900 3150 9000 3150
Text Label 7850 2050 0    50   ~ 0
A9
Text Label 7850 1950 0    50   ~ 0
A10
Text Label 7850 1850 0    50   ~ 0
A11
Text Label 7850 1750 0    50   ~ 0
A12
Text Label 7850 1450 0    50   ~ 0
A13
Text Label 7850 1550 0    50   ~ 0
A14
Text Label 7850 1650 0    50   ~ 0
A15
Text Label 7850 1350 0    50   ~ 0
A16
Wire Wire Line
	7850 1350 7750 1350
Wire Wire Line
	7750 1450 7850 1450
Wire Wire Line
	7850 1550 7750 1550
Wire Wire Line
	7750 1650 7850 1650
Wire Wire Line
	7850 1750 7750 1750
Wire Wire Line
	7750 1850 7850 1850
Wire Wire Line
	7850 1950 7750 1950
Wire Wire Line
	7750 2050 7850 2050
Text Label 7850 3900 0    50   ~ 0
A17
Wire Wire Line
	7850 3900 7750 3900
Text Label 2300 3800 0    50   ~ 0
RAS
Text Label 6650 4100 2    50   ~ 0
RAS
Wire Wire Line
	6650 4100 6750 4100
Text Label 6650 2250 2    50   ~ 0
RAS
Wire Wire Line
	6650 2250 6750 2250
Text Label 10100 3150 0    50   ~ 0
~CAS
Wire Wire Line
	10100 3150 10000 3150
Wire Wire Line
	8900 3450 9000 3450
Wire Wire Line
	9000 3350 8900 3350
Wire Wire Line
	2300 3800 2200 3800
Text Label 3800 2800 2    50   ~ 0
~WE0
Wire Wire Line
	3800 2800 4000 2800
Text Label 4900 1500 0    50   ~ 0
~WE
Wire Wire Line
	4900 1500 4800 1500
Text Label 10100 3350 0    50   ~ 0
~WE
Wire Wire Line
	10100 3350 10000 3350
Wire Wire Line
	10000 3250 10300 3250
Wire Wire Line
	10300 3250 10300 3850
Wire Wire Line
	10300 3850 9500 3850
Connection ~ 9500 3850
Wire Wire Line
	9500 3850 9500 3950
Wire Wire Line
	4650 3700 4600 3700
Wire Wire Line
	4650 2800 4600 2800
Wire Wire Line
	3900 3700 4000 3700
Wire Wire Line
	1200 3800 1600 3800
$Comp
L 74xx:74LS08 U2
U 5 1 6056ACA8
P 1500 6750
F 0 "U2" H 1550 6400 50  0000 L CNN
F 1 "74AHCT08" H 1550 6300 50  0000 L CNN
F 2 "Package_SO:TSSOP-14_4.4x5mm_P0.65mm" H 1500 6750 50  0001 C CNN
F 3 "http://www.ti.com/lit/gpn/sn74LS08" H 1500 6750 50  0001 C CNN
	5    1500 6750
	1    0    0    -1  
$EndComp
$Comp
L power:+5V #PWR08
U 1 1 6059F4A5
P 1500 6150
F 0 "#PWR08" H 1500 6000 50  0001 C CNN
F 1 "+5V" H 1515 6323 50  0000 C CNN
F 2 "" H 1500 6150 50  0001 C CNN
F 3 "" H 1500 6150 50  0001 C CNN
	1    1500 6150
	1    0    0    -1  
$EndComp
Wire Wire Line
	1500 6150 1500 6200
$Comp
L power:GND #PWR09
U 1 1 605AD2CB
P 1500 7350
F 0 "#PWR09" H 1500 7100 50  0001 C CNN
F 1 "GND" H 1505 7177 50  0000 C CNN
F 2 "" H 1500 7350 50  0001 C CNN
F 3 "" H 1500 7350 50  0001 C CNN
	1    1500 7350
	1    0    0    -1  
$EndComp
Wire Wire Line
	1500 7250 1500 7300
$Comp
L 74xx:74LS08 U2
U 1 1 605B7DC2
P 4500 1500
F 0 "U2" H 4500 1825 50  0000 C CNN
F 1 "74AHCT08" H 4500 1734 50  0000 C CNN
F 2 "Package_SO:TSSOP-14_4.4x5mm_P0.65mm" H 4500 1500 50  0001 C CNN
F 3 "http://www.ti.com/lit/gpn/sn74LS08" H 4500 1500 50  0001 C CNN
	1    4500 1500
	1    0    0    -1  
$EndComp
$Comp
L 74xx:74LS08 U2
U 2 1 605B94EF
P 5050 3000
F 0 "U2" H 5050 3325 50  0000 C CNN
F 1 "74AHCT08" H 5050 3234 50  0000 C CNN
F 2 "Package_SO:TSSOP-14_4.4x5mm_P0.65mm" H 5050 3000 50  0001 C CNN
F 3 "http://www.ti.com/lit/gpn/sn74LS08" H 5050 3000 50  0001 C CNN
	2    5050 3000
	1    0    0    -1  
$EndComp
$Comp
L 74xx:74LS08 U2
U 3 1 605BD687
P 5050 3900
F 0 "U2" H 5050 4225 50  0000 C CNN
F 1 "74AHCT08" H 5050 4134 50  0000 C CNN
F 2 "Package_SO:TSSOP-14_4.4x5mm_P0.65mm" H 5050 3900 50  0001 C CNN
F 3 "http://www.ti.com/lit/gpn/sn74LS08" H 5050 3900 50  0001 C CNN
	3    5050 3900
	1    0    0    -1  
$EndComp
$Comp
L 74xx:74LS08 U2
U 4 1 605BEB71
P 2900 6650
F 0 "U2" H 2900 6975 50  0000 C CNN
F 1 "74AHCT08" H 2900 6884 50  0000 C CNN
F 2 "Package_SO:TSSOP-14_4.4x5mm_P0.65mm" H 2900 6650 50  0001 C CNN
F 3 "http://www.ti.com/lit/gpn/sn74LS08" H 2900 6650 50  0001 C CNN
	4    2900 6650
	1    0    0    -1  
$EndComp
Text Label 4100 1400 2    50   ~ 0
~WE0
Text Label 4100 1600 2    50   ~ 0
~WE1
Wire Wire Line
	4200 1400 4100 1400
Wire Wire Line
	4200 1600 4100 1600
Text Label 3800 3250 2    50   ~ 0
~WE1
Text Label 8900 3350 2    50   ~ 0
~BLE
Text Label 8900 3450 2    50   ~ 0
~BHE
Text Label 5450 3900 0    50   ~ 0
~BLE
Text Label 5450 3000 0    50   ~ 0
~BHE
Wire Wire Line
	5450 3900 5350 3900
Text Label 3850 4150 2    50   ~ 0
~WE0
Wire Wire Line
	3850 4150 4650 4150
$Comp
L power:GND #PWR024
U 1 1 606F32D9
P 2500 6850
F 0 "#PWR024" H 2500 6600 50  0001 C CNN
F 1 "GND" H 2505 6677 50  0000 C CNN
F 2 "" H 2500 6850 50  0001 C CNN
F 3 "" H 2500 6850 50  0001 C CNN
	1    2500 6850
	1    0    0    -1  
$EndComp
Wire Wire Line
	2600 6750 2500 6750
Wire Wire Line
	2600 6550 2500 6550
Wire Wire Line
	2500 6550 2500 6750
Connection ~ 2500 6750
NoConn ~ 3200 6650
$Comp
L 74xx:74HCT574 U3
U 1 1 60795D54
P 7250 1850
F 0 "U3" H 7300 1200 50  0000 L CNN
F 1 "74AHCT574" H 7300 1100 50  0000 L CNN
F 2 "Package_SO:TSSOP-20_4.4x6.5mm_P0.65mm" H 7250 1850 50  0001 C CNN
F 3 "http://www.ti.com/lit/gpn/sn74HCT574" H 7250 1850 50  0001 C CNN
	1    7250 1850
	1    0    0    -1  
$EndComp
Wire Wire Line
	7250 2700 6650 2700
Wire Wire Line
	6650 2700 6650 2350
Wire Wire Line
	6650 2350 6750 2350
Connection ~ 7250 2700
Wire Wire Line
	7250 2700 7250 2650
$Comp
L 74xx_Extra:74AHCT1G04 U1
U 1 1 607F8519
P 1900 3800
F 0 "U1" H 1950 3700 50  0000 L CNN
F 1 "74AHCT1G04" H 1950 3600 50  0000 L CNN
F 2 "Package_TO_SOT_SMD:SOT-23-5_HandSoldering" H 1900 3800 50  0001 C CNN
F 3 "http://www.ti.com/lit/sg/scyt129e/scyt129e.pdf" H 1900 3800 50  0001 C CNN
	1    1900 3800
	1    0    0    -1  
$EndComp
$Comp
L power:+5V #PWR06
U 1 1 60804F06
P 1850 3500
F 0 "#PWR06" H 1850 3350 50  0001 C CNN
F 1 "+5V" H 1865 3673 50  0000 C CNN
F 2 "" H 1850 3500 50  0001 C CNN
F 3 "" H 1850 3500 50  0001 C CNN
	1    1850 3500
	1    0    0    -1  
$EndComp
$Comp
L power:GND #PWR07
U 1 1 608102E6
P 1850 4100
F 0 "#PWR07" H 1850 3850 50  0001 C CNN
F 1 "GND" H 1855 3927 50  0000 C CNN
F 2 "" H 1850 4100 50  0001 C CNN
F 3 "" H 1850 4100 50  0001 C CNN
	1    1850 4100
	1    0    0    -1  
$EndComp
$Comp
L 74xx_Extra:74AHCT1G04 U5
U 1 1 6082CF32
P 4300 2800
F 0 "U5" H 4350 2700 50  0000 L CNN
F 1 "74AHCT1G04" H 4350 2600 50  0000 L CNN
F 2 "Package_TO_SOT_SMD:SOT-23-5_HandSoldering" H 4300 2800 50  0001 C CNN
F 3 "http://www.ti.com/lit/sg/scyt129e/scyt129e.pdf" H 4300 2800 50  0001 C CNN
	1    4300 2800
	1    0    0    -1  
$EndComp
$Comp
L 74xx_Extra:74AHCT1G04 U6
U 1 1 6082E285
P 4300 3700
F 0 "U6" H 4350 3600 50  0000 L CNN
F 1 "74AHCT1G04" H 4350 3500 50  0000 L CNN
F 2 "Package_TO_SOT_SMD:SOT-23-5_HandSoldering" H 4300 3700 50  0001 C CNN
F 3 "http://www.ti.com/lit/sg/scyt129e/scyt129e.pdf" H 4300 3700 50  0001 C CNN
	1    4300 3700
	1    0    0    -1  
$EndComp
$Comp
L power:GND #PWR017
U 1 1 60845F96
P 4250 3000
F 0 "#PWR017" H 4250 2750 50  0001 C CNN
F 1 "GND" H 4255 2827 50  0000 C CNN
F 2 "" H 4250 3000 50  0001 C CNN
F 3 "" H 4250 3000 50  0001 C CNN
	1    4250 3000
	1    0    0    -1  
$EndComp
Wire Wire Line
	4650 2800 4650 2900
Wire Wire Line
	4650 2900 4750 2900
Wire Wire Line
	4650 3250 4650 3100
Wire Wire Line
	4650 3100 4750 3100
$Comp
L power:+5V #PWR018
U 1 1 6088617E
P 4250 3500
F 0 "#PWR018" H 4250 3350 50  0001 C CNN
F 1 "+5V" H 4265 3673 50  0000 C CNN
F 2 "" H 4250 3500 50  0001 C CNN
F 3 "" H 4250 3500 50  0001 C CNN
	1    4250 3500
	1    0    0    -1  
$EndComp
Wire Wire Line
	3900 3700 3900 3250
Wire Wire Line
	4650 3700 4650 3800
Wire Wire Line
	4650 3800 4750 3800
Wire Wire Line
	4650 4150 4650 4000
Wire Wire Line
	4650 4000 4750 4000
Wire Wire Line
	5450 3000 5350 3000
$Comp
L power:GND #PWR019
U 1 1 6095660A
P 4250 3900
F 0 "#PWR019" H 4250 3650 50  0001 C CNN
F 1 "GND" H 4255 3727 50  0000 C CNN
F 2 "" H 4250 3900 50  0001 C CNN
F 3 "" H 4250 3900 50  0001 C CNN
	1    4250 3900
	1    0    0    -1  
$EndComp
$Comp
L power:+5V #PWR016
U 1 1 6095699F
P 4250 2600
F 0 "#PWR016" H 4250 2450 50  0001 C CNN
F 1 "+5V" H 4265 2773 50  0000 C CNN
F 2 "" H 4250 2600 50  0001 C CNN
F 3 "" H 4250 2600 50  0001 C CNN
	1    4250 2600
	1    0    0    -1  
$EndComp
Wire Wire Line
	2500 6750 2500 6850
$Comp
L power:+5V #PWR02
U 1 1 60AADEEE
P 1000 6650
F 0 "#PWR02" H 1000 6500 50  0001 C CNN
F 1 "+5V" H 1015 6823 50  0000 C CNN
F 2 "" H 1000 6650 50  0001 C CNN
F 3 "" H 1000 6650 50  0001 C CNN
	1    1000 6650
	1    0    0    -1  
$EndComp
$Comp
L power:GND #PWR03
U 1 1 60AAE63F
P 1000 6850
F 0 "#PWR03" H 1000 6600 50  0001 C CNN
F 1 "GND" H 1005 6677 50  0000 C CNN
F 2 "" H 1000 6850 50  0001 C CNN
F 3 "" H 1000 6850 50  0001 C CNN
	1    1000 6850
	1    0    0    -1  
$EndComp
$Comp
L Device:C_Small C1
U 1 1 60ABB94E
P 1000 6750
F 0 "C1" H 1100 6750 50  0000 L CNN
F 1 "100n" H 1100 6850 50  0000 L CNN
F 2 "Capacitor_SMD:C_0603_1608Metric_Pad1.08x0.95mm_HandSolder" H 1000 6750 50  0001 C CNN
F 3 "~" H 1000 6750 50  0001 C CNN
	1    1000 6750
	-1   0    0    1   
$EndComp
Text Label 8900 2750 2    50   ~ 0
A17
Text Label 8900 2850 2    50   ~ 0
A16
Text Label 8900 3150 2    50   ~ 0
A15
Text Label 8900 3050 2    50   ~ 0
A14
Text Label 8900 2950 2    50   ~ 0
A13
Text Label 8900 2350 2    50   ~ 0
A9
$Comp
L 74xx_Extra:74LVC1G79 U4
U 1 1 60BFB7FA
P 7250 4050
F 0 "U4" H 7300 3750 50  0000 L CNN
F 1 "74AHCT1G79" H 7300 3650 50  0000 L CNN
F 2 "Package_TO_SOT_SMD:SOT-353_SC-70-5_Handsoldering" H 7250 3900 50  0001 C CNN
F 3 "" H 7250 3900 50  0001 C CNN
	1    7250 4050
	1    0    0    -1  
$EndComp
Wire Wire Line
	7250 4500 7250 4600
$Comp
L Device:C_Small C2
U 1 1 60C18272
P 1950 6750
F 0 "C2" H 2050 6750 50  0000 L CNN
F 1 "100n" H 2050 6650 50  0000 L CNN
F 2 "Capacitor_SMD:C_0603_1608Metric_Pad1.08x0.95mm_HandSolder" H 1950 6750 50  0001 C CNN
F 3 "~" H 1950 6750 50  0001 C CNN
	1    1950 6750
	1    0    0    -1  
$EndComp
Wire Wire Line
	1950 6850 1950 7300
Wire Wire Line
	1950 7300 1500 7300
Connection ~ 1500 7300
Wire Wire Line
	1500 7300 1500 7350
Wire Wire Line
	1950 6650 1950 6200
Wire Wire Line
	1950 6200 1500 6200
Connection ~ 1500 6200
Wire Wire Line
	1500 6200 1500 6250
Wire Wire Line
	1850 3500 1850 3600
Wire Wire Line
	1850 4100 1850 4000
Wire Wire Line
	3800 3250 3900 3250
Connection ~ 3900 3250
Wire Wire Line
	3900 3250 4650 3250
Text Label 1300 2900 0    50   ~ 0
D7
Text Notes 2000 4250 0    50   ~ 0
Latches are positive clocked,\nso invert the ~RAS~ signal.
Text Notes 3950 1900 0    50   ~ 0
~WE~ low (active) when either\n~WE0~ or ~WE1~ are low.
Text Notes 3800 4450 0    50   ~ 0
For writes, select only the higher (~BHE~) or\nlower (~BLE~) 8 bits of the SRAM.  For reads,\nselect both.
Text Notes 6650 3150 0    50   ~ 0
Latch row addresses to SRAM.
Text Notes 1000 5350 0    50   ~ 0
Connectors through to\nCoCo 3 motherboard.
Text Notes 9050 4400 0    50   ~ 0
256K x 16bit SRAM with\nhigh/low 8-bit selects.
Text Label 6650 2050 2    50   ~ 0
Z0
Text Label 6650 1950 2    50   ~ 0
Z1
Text Label 6650 1850 2    50   ~ 0
Z2
Text Label 6650 1750 2    50   ~ 0
Z3
Text Label 6650 1650 2    50   ~ 0
Z6
Text Label 6650 1550 2    50   ~ 0
Z5
Text Label 6650 1450 2    50   ~ 0
Z4
Text Label 6650 1350 2    50   ~ 0
Z7
Text Label 6650 3900 2    50   ~ 0
Z8
Text Label 8900 1950 2    50   ~ 0
Z0
Text Label 8900 2050 2    50   ~ 0
Z1
Text Label 8900 2150 2    50   ~ 0
Z2
Text Label 8900 1850 2    50   ~ 0
Z3
Text Label 8900 1750 2    50   ~ 0
Z6
Text Label 8900 1650 2    50   ~ 0
Z5
Text Label 8900 1550 2    50   ~ 0
Z4
Text Label 8900 1450 2    50   ~ 0
Z7
Text Label 8900 2250 2    50   ~ 0
Z8
$EndSCHEMATC
